^C:\USERS\AMIT\DOCUMENTS\CLASSES\C#\PROJECT\RIPGG\REPO\TRIVIAPROJECT\TRIVIAPROJECT\DEBUG\CRYPTOR.OBJ|C:\USERS\AMIT\DOCUMENTS\CLASSES\C#\PROJECT\RIPGG\REPO\TRIVIAPROJECT\TRIVIAPROJECT\DEBUG\DATABASE.OBJ|C:\USERS\AMIT\DOCUMENTS\CLASSES\C#\PROJECT\RIPGG\REPO\TRIVIAPROJECT\TRIVIAPROJECT\DEBUG\GAME.OBJ|C:\USERS\AMIT\DOCUMENTS\CLASSES\C#\PROJECT\RIPGG\REPO\TRIVIAPROJECT\TRIVIAPROJECT\DEBUG\HELPER.OBJ|C:\USERS\AMIT\DOCUMENTS\CLASSES\C#\PROJECT\RIPGG\REPO\TRIVIAPROJECT\TRIVIAPROJECT\DEBUG\QUESTION.OBJ|C:\USERS\AMIT\DOCUMENTS\CLASSES\C#\PROJECT\RIPGG\REPO\TRIVIAPROJECT\TRIVIAPROJECT\DEBUG\RECIEVEDMESSAGE.OBJ|C:\USERS\AMIT\DOCUMENTS\CLASSES\C#\PROJECT\RIPGG\REPO\TRIVIAPROJECT\TRIVIAPROJECT\DEBUG\ROOM.OBJ|C:\USERS\AMIT\DOCUMENTS\CLASSES\C#\PROJECT\RIPGG\REPO\TRIVIAPROJECT\TRIVIAPROJECT\DEBUG\SOURCE.OBJ|C:\USERS\AMIT\DOCUMENTS\CLASSES\C#\PROJECT\RIPGG\REPO\TRIVIAPROJECT\TRIVIAPROJECT\DEBUG\SQLITE3.OBJ|C:\USERS\AMIT\DOCUMENTS\CLASSES\C#\PROJECT\RIPGG\REPO\TRIVIAPROJECT\TRIVIAPROJECT\DEBUG\STDAFX.OBJ|C:\USERS\AMIT\DOCUMENTS\CLASSES\C#\PROJECT\RIPGG\REPO\TRIVIAPROJECT\TRIVIAPROJECT\DEBUG\TRIVIASERVER.OBJ|C:\USERS\AMIT\DOCUMENTS\CLASSES\C#\PROJECT\RIPGG\REPO\TRIVIAPROJECT\TRIVIAPROJECT\DEBUG\USER.OBJ|C:\USERS\AMIT\DOCUMENTS\CLASSES\C#\PROJECT\RIPGG\REPO\TRIVIAPROJECT\TRIVIAPROJECT\DEBUG\VALIDATOR.OBJ|C:\USERS\AMIT\DOCUMENTS\CLASSES\C#\PROJECT\RIPGG\REPO\TRIVIAPROJECT\TRIVIAPROJECT\DEBUG\WSAINITIALIZER.OBJ
C:\USERS\AMIT\DOCUMENTS\CLASSES\C#\PROJECT\RIPGG\REPO\TRIVIAPROJECT\DEBUG\TRIVIAPROJECT.ILK
C:\USERS\AMIT\DOCUMENTS\CLASSES\C#\PROJECT\RIPGG\REPO\TRIVIAPROJECT\DEBUG\TRIVIAPROJECT.EXE
C:\USERS\AMIT\DOCUMENTS\CLASSES\C#\PROJECT\RIPGG\REPO\TRIVIAPROJECT\DEBUG\TRIVIAPROJECT.PDB
^C:\USERS\USER\DOCUMENTS\MAGSHIMIM\C++\FINALPROJECT\FINALPROJECT\FINALPROJECT\REPO\TRIVIAPROJECT\TRIVIAPROJECT\DEBUG\CRYPTOR.OBJ|C:\USERS\USER\DOCUMENTS\MAGSHIMIM\C++\FINALPROJECT\FINALPROJECT\FINALPROJECT\REPO\TRIVIAPROJECT\TRIVIAPROJECT\DEBUG\DATABASE.OBJ|C:\USERS\USER\DOCUMENTS\MAGSHIMIM\C++\FINALPROJECT\FINALPROJECT\FINALPROJECT\REPO\TRIVIAPROJECT\TRIVIAPROJECT\DEBUG\GAME.OBJ|C:\USERS\USER\DOCUMENTS\MAGSHIMIM\C++\FINALPROJECT\FINALPROJECT\FINALPROJECT\REPO\TRIVIAPROJECT\TRIVIAPROJECT\DEBUG\HELPER.OBJ|C:\USERS\USER\DOCUMENTS\MAGSHIMIM\C++\FINALPROJECT\FINALPROJECT\FINALPROJECT\REPO\TRIVIAPROJECT\TRIVIAPROJECT\DEBUG\QUESTION.OBJ|C:\USERS\USER\DOCUMENTS\MAGSHIMIM\C++\FINALPROJECT\FINALPROJECT\FINALPROJECT\REPO\TRIVIAPROJECT\TRIVIAPROJECT\DEBUG\RECIEVEDMESSAGE.OBJ|C:\USERS\USER\DOCUMENTS\MAGSHIMIM\C++\FINALPROJECT\FINALPROJECT\FINALPROJECT\REPO\TRIVIAPROJECT\TRIVIAPROJECT\DEBUG\ROOM.OBJ|C:\USERS\USER\DOCUMENTS\MAGSHIMIM\C++\FINALPROJECT\FINALPROJECT\FINALPROJECT\REPO\TRIVIAPROJECT\TRIVIAPROJECT\DEBUG\SOURCE.OBJ|C:\USERS\USER\DOCUMENTS\MAGSHIMIM\C++\FINALPROJECT\FINALPROJECT\FINALPROJECT\REPO\TRIVIAPROJECT\TRIVIAPROJECT\DEBUG\SQLITE3.OBJ|C:\USERS\USER\DOCUMENTS\MAGSHIMIM\C++\FINALPROJECT\FINALPROJECT\FINALPROJECT\REPO\TRIVIAPROJECT\TRIVIAPROJECT\DEBUG\STDAFX.OBJ|C:\USERS\USER\DOCUMENTS\MAGSHIMIM\C++\FINALPROJECT\FINALPROJECT\FINALPROJECT\REPO\TRIVIAPROJECT\TRIVIAPROJECT\DEBUG\TRIVIASERVER.OBJ|C:\USERS\USER\DOCUMENTS\MAGSHIMIM\C++\FINALPROJECT\FINALPROJECT\FINALPROJECT\REPO\TRIVIAPROJECT\TRIVIAPROJECT\DEBUG\USER.OBJ|C:\USERS\USER\DOCUMENTS\MAGSHIMIM\C++\FINALPROJECT\FINALPROJECT\FINALPROJECT\REPO\TRIVIAPROJECT\TRIVIAPROJECT\DEBUG\VALIDATOR.OBJ|C:\USERS\USER\DOCUMENTS\MAGSHIMIM\C++\FINALPROJECT\FINALPROJECT\FINALPROJECT\REPO\TRIVIAPROJECT\TRIVIAPROJECT\DEBUG\WSAINITIALIZER.OBJ
C:\USERS\USER\DOCUMENTS\MAGSHIMIM\C++\FINALPROJECT\FINALPROJECT\FINALPROJECT\REPO\TRIVIAPROJECT\DEBUG\TRIVIAPROJECT.ILK
C:\USERS\USER\DOCUMENTS\MAGSHIMIM\C++\FINALPROJECT\FINALPROJECT\FINALPROJECT\REPO\TRIVIAPROJECT\DEBUG\TRIVIAPROJECT.EXE
C:\USERS\USER\DOCUMENTS\MAGSHIMIM\C++\FINALPROJECT\FINALPROJECT\FINALPROJECT\REPO\TRIVIAPROJECT\DEBUG\TRIVIAPROJECT.PDB
